<?xml version="1.0" encoding="utf-8"?>
<!-- Generator: Adobe Illustrator 22.0.1, SVG Export Plug-In . SVG Version: 6.00 Build 0)  -->
<svg version="1.1" id="Layer_1" xmlns="http://www.w3.org/2000/svg" xmlns:xlink="http://www.w3.org/1999/xlink" x="0px" y="0px"
	 viewBox="0 0 669.5 773" style="enable-background:new 0 0 669.5 773;" xml:space="preserve">
<style type="text/css">
	.st0{fill:#F3E1D3;}
	.st1{fill:#F58F7E;}
	.st2{opacity:0.76;}
	.st3{fill:#FFFFFF;stroke:#FFFFFF;stroke-width:3;stroke-miterlimit:10;}
	.st4{fill:#FAD5E1;}
	.st5{opacity:0.83;}
	.st6{fill:#EEB6C4;}
	.st7{fill:#D591A7;}
	.st8{fill:#AF8BAC;}
	.st9{fill:#786081;}
	.st10{fill:none;}
	.st11{opacity:0.87;}
	.st12{fill:#F3E1D3;stroke:#F3E1D3;stroke-width:3;stroke-linecap:round;stroke-linejoin:round;stroke-miterlimit:10;}
	.st13{stroke:#000000;stroke-miterlimit:10;}
	.st14{fill:#F1F2F2;}
	.st15{fill:#E6E7E8;}
	.st16{fill:#BCBEC0;}
	.st17{fill:#939598;}
	.st18{fill:#333333;}
	.st19{fill:#AFAFAF;}
	.st20{fill:#FFFFFF;stroke:#F1F2F2;stroke-width:3;stroke-linecap:round;stroke-linejoin:round;stroke-miterlimit:10;}
	.st21{fill:#DFF2F1;}
	.st22{fill:#CBD6ED;}
	.st23{fill:#B9E2DE;}
	.st24{fill:#9DC7D6;}
	.st25{fill:#9EAFD8;}
	.st26{fill:#B9E2DE;stroke:#B9E2DE;stroke-width:3;stroke-miterlimit:10;}
	.st27{fill:#FCDDBF;}
	.st28{fill:#FBCFC0;}
	.st29{fill:#F17C61;}
	.st30{opacity:0.7;}
	.st31{fill:#8BA2D1;}
	.st32{fill:#FFFFFF;}
	.st33{fill:#8C6D93;}
	.st34{opacity:0.68;}
	.st35{fill:#F9C4B7;}
	.st36{opacity:0.53;}
	.st37{fill:#ED6954;}
	.st38{opacity:0.6;}
	.st39{fill:none;stroke:#000000;stroke-width:2.5;stroke-miterlimit:10;}
	.st40{fill:none;stroke:#000000;stroke-miterlimit:10;}
	.st41{fill:#020202;}
	.st42{fill:none;stroke:#000000;stroke-width:2;stroke-miterlimit:10;}
	.st43{stroke:#000000;stroke-width:3;stroke-linecap:round;stroke-linejoin:round;stroke-miterlimit:10;}
	.st44{opacity:0.66;fill:none;stroke:#000000;stroke-width:4;stroke-miterlimit:10;}
	.st45{fill:none;stroke:#FFFFFF;stroke-width:8;stroke-miterlimit:10;}
	.st46{opacity:0.58;}
	.st47{stroke:#000000;stroke-width:3;stroke-miterlimit:10;}
	.st48{fill:none;stroke:#FFFFFF;stroke-width:4;stroke-linecap:round;stroke-linejoin:round;stroke-miterlimit:10;}
	.st49{fill:none;stroke:#FFFFFF;stroke-width:8;stroke-linecap:round;stroke-linejoin:round;stroke-miterlimit:10;}
</style>
<g>
	<g>
		<g>
			<g class="st38">
				
					<image style="overflow:visible;" width="2909" height="3371" xlink:href="5BD42C61.png"  transform="matrix(0.24 0 0 0.24 -10.6799 -14.9757)">
				</image>
			</g>
			<g>
				<g>
					<g>
						<g>
							<polygon class="st27" points="305.2,58.4 251.4,89.4 248.3,91.2 322.3,91.2 							"/>
							<polygon class="st28" points="349.7,38.5 305.2,58.4 322.3,91.2 							"/>
							<polygon class="st1" points="402.4,34.2 349.7,38.5 322.3,91.2 432.1,91.2 							"/>
							<polygon class="st29" points="455.1,47.2 401.5,32.5 432.1,91.2 							"/>
							<polygon class="st27" points="219.9,105.6 157.4,196.6 267.3,196.6 							"/>
							<polygon class="st28" points="322.3,91.2 246.8,91.2 219.9,105.6 267.3,196.6 							"/>
							<polygon class="st1" points="322.3,91.2 267.3,196.6 377.2,196.6 							"/>
							<polygon class="st29" points="432.1,91.2 322.3,91.2 377.2,196.6 							"/>
						</g>
						<g>
							<polygon class="st27" points="157.4,196.6 73.7,335 212.4,302 							"/>
							<polygon class="st28" points="267.3,196.6 157.4,196.6 212.4,302 							"/>
							<polygon class="st1" points="267.3,196.6 212.4,302 322.3,302 							"/>
							<polygon class="st29" points="377.2,196.6 267.3,196.6 322.3,302 							"/>
							<polygon class="st28" points="212.4,302 70.4,302 157.4,407.5 							"/>
							<polygon class="st1" points="212.4,302 157.4,407.5 267.3,407.5 							"/>
							<polygon class="st29" points="322.3,302 212.4,302 267.3,407.5 							"/>
						</g>
						<g>
							<polygon class="st29" points="267.3,407.5 157.4,407.5 234.9,469.7 							"/>
						</g>
						<polygon class="st27" points="455.1,47.2 432.1,91.2 509.1,91.2 						"/>
						<polygon class="st27" points="432.1,91.2 377.2,196.6 487.1,196.6 						"/>
						<polygon class="st28" points="518.2,107.9 510.2,91.2 432.1,91.2 487.1,196.6 529,116.2 						"/>
						<polygon class="st1" points="531.1,112.1 487.1,196.6 555,196.6 						"/>
						<g>
							<polygon class="st27" points="377.2,196.6 322.3,302 432.1,302 							"/>
							<polygon class="st28" points="487.1,196.6 377.2,196.6 432.1,302 							"/>
							<polygon class="st1" points="487.1,196.6 432.1,302 542,302 							"/>
							<polygon class="st29" points="563.6,215.3 557,196.6 487.1,196.6 542,302 584.1,221.2 							"/>
							<polygon class="st27" points="322.3,302 267.3,407.5 377.2,407.5 							"/>
							<polygon class="st28" points="432.1,302 322.3,302 377.2,407.5 							"/>
							<polygon class="st1" points="432.1,302 377.2,407.5 441.9,407.5 451.5,389.6 487.1,407.5 							"/>
							<polygon class="st29" points="542,302 432.1,302 487.1,407.5 							"/>
						</g>
						<g>
							<polygon class="st27" points="267.3,407.5 234.9,469.7 322.3,512.9 							"/>
							<polygon class="st28" points="377.2,407.5 267.3,407.5 322.3,512.9 							"/>
							<path class="st1" d="M378.6,503.7l2.1,1.2c2.7,1.6,5.9,1.3,8.4-0.7l17.9-14.5c0.7-0.6,1.6-0.9,2.5-0.9c2.3,0,4.5-0.3,6.7-0.8
								l-39-80.6l-54.9,105.4h42.2l10.5-9.1C376.1,503,377.4,503,378.6,503.7z"/>
							<path class="st1" d="M416.2,488c-2.2,0.5-4.4,0.8-6.7,0.8c-0.9,0-1.7,0.3-2.5,0.9l-17.9,14.5c-2.5,2-5.7,2.3-8.4,0.7
								l-2.1-1.2c-1.2-0.7-2.5-0.6-3.6,0.1l-10.5,9.1h63.7L416.2,488z"/>
							<polygon class="st29" points="322.3,512.9 346.6,519.3 351.5,524.1 364.5,512.9 							"/>
							<polygon class="st29" points="404.3,566.4 428.2,512.9 364.5,512.9 351.5,524.1 356.7,529.2 							"/>
						</g>
						<g>
							<polyline class="st27" points="644.5,287.9 597,243.6 583.1,223.2 542,302 641.8,302 							"/>
							<polygon class="st27" points="542,302 487.1,407.5 597,407.5 							"/>
							<polygon class="st28" points="641.1,302 542,302 597,407.5 619.8,355.8 							"/>
						</g>
						<g>
							<polygon class="st28" points="597,407.5 487.1,407.5 490.5,414.1 537.1,426.4 589.1,412.4 							"/>
						</g>
						<g>
							<path d="M118.8,595.6c0.4,0.5,0.9,0.9,1.4,1.3c19.3-44.9,42.1-129.9,46.7-125.2L60.3,381c31.2,52.9,41.6,146.2,42.8,200.8
								C108.9,585.4,114.1,589.9,118.8,595.6z"/>
							<path d="M101.4,622.4c-0.2,0.7,0.4,1.5,1.1,1.4c4.9-0.8,11.1-11.5,17.7-26.9c-0.5-0.4-1-0.8-1.4-1.3
								c-4.6-5.7-9.9-10.2-15.6-13.9C103.6,602,102.8,616.9,101.4,622.4z"/>
							<path d="M311.4,210.2c6-2.2,11.6-5,17.5-6.2c7.7-1.5,12.1,4.8,7.8,11.7c-14.7,23.6-15.5,48.7-9.1,75.2
								c0.1,0.2-0.1,0.5-0.1,0.4c-9.6-6.9-19.7-13.4-29-20.9c-9.4-7.5-11.5-19.4-11.7-31c-0.4-21-4.6-40.1-15.2-57.9
								c-4.4-7.4-6.6-17.2-7.8-26.2c-1.5-11.8,3.7-21.9,12-29c20.4-17.2,41.6-33.2,68-35.8c9.4-0.9,19.4,1.5,28.7,4
								c7.1,1.9,12.1,8.2,13.3,16.7c2.2,16.1,0.2,31.5-8.4,46.9c-0.8-7.6-1.1-14-2-20.2c-4.7-30.3-32.3-41.9-52.9-21.5
								c-15,14.8-22.1,34.2-19.6,56.9c0.4,3.2,1.9,7.2,4.1,9.2c7.3,6.4,7.9,14.1,5.3,23.1C311.9,207.3,311.6,209,311.4,210.2z"/>
							<path d="M485.2,199.5c3.9,13.7,0,28.3,12.6,35.8c-1.2,0.6-1.7,1-1.8,0.9c-7.5-8.4-15.9-2.6-24.1-2.1
								c-5.9,0.4-12-0.7-17.9-2.1c-4.8-1.2-4.8-5.7-1.5-8.4c4.3-3.5,9.3-5.9,14.3-8.2C473.8,212.4,481.1,210.2,485.2,199.5z"/>
						</g>
					</g>
					<g>
						<path d="M485.2,199.5c3.9,13.7,4.6,26.1,12.6,35.8c-1.2,0.6-1.7,0.9-1.8,0.9c-15.2-2.8-15.9-2.6-24.1-2.1
							c-5.9,0.4-12-0.7-17.9-2.1c-4.8-1.2-4.8-5.7-1.5-8.4c4.3-3.5,9-8.6,13.4-11.7C473.2,207.1,474.1,206.6,485.2,199.5z"/>
					</g>
					<g>
						<path d="M630.7,266.2c-4.7-5.5-10.6-9.5-15.7-14.6c-16.8-16.6-34-32.9-50-50.3c-9.5-10.3-13-24-10.4-39
							c2-11.8,0.2-23.1-7.4-31.8c-14.4-16.5-28.5-33.4-44.3-48.1c-17.8-16.6-50.4-49.9-85.6-58.9c-2.6-0.7,0.3,5.4-15,3.8
							c-67-13.5-105.6-5.8-133.4-7.7c-62.1-4.3-82.5,8.8-91.2,13c-6.8,3.2,29.4,2.4,23.1,6c-12.8,7.4-6.8,16.8-25.3,22.4
							c-17.4,7.6-55.4,2.6-58.9-16.2c-6.5,15.3,4.2,33.1,12,36C79.4,95,63.9,111.2,19.5,210.4c11.5-12.1,32.4-0.5,46.1-10.9
							c7.7-5.8-49.1,57.8-57.8,84.6c-0.4,1.3,20.7-13.5,33-22.2c-10.5,23-20.6,58.5-21.2,78.4c-0.9,29.5,13.4,89.4,37.1,111.9
							c4.4,4.2,9.3,7.7,14.2,11.4c1.4,1.1,3.4-0.3,2.8-2.1c-4.7-13.5-18.2-49.2-16.5-74.9L201.2,629l15.7,11.6l-5.8,5.1l0,0
							l155.8-134.9c-2.2-1.6-4.3-2.6-6.2-2.9c-0.1,0-0.3-0.1-0.4-0.1c-29-12.9-58.5-19.5-84-39.5c-28.7-22.4-50.2-46.4-77.5-69.6
							c-16-13.6-12.5-9.8-36.5-57.4c-6.6-13,6.9-25.6,0-46.8c-9.3-28.6-17.5-55-8-81.5c1.8-5.1,4-10.1,6.5-15.1
							c6.6-13.1,7.6,6.4,15.7-5.3c8.9-12.8,25-56.7,35.9-67.7c12.4-12.3,25.7-23.5,38.9-35.4c15.5-8.4,21.1-3.9,33.9-9.6
							c9.5-4.2,26.8-19.1,35-22.1c58-20.6,87.6-11.6,117.6,0.3c40.6,16.1,72.1,44.6,93.4,86.2c-35.6-39-74.6-71.4-125.7-80.5
							c1,1.9,2.6,2.5,4.1,3.4c15.4,9.3,31.2,17.7,45.9,28.1c22.3,15.9,42.2,35.2,58.4,58.8c4.8,7,7.2,14.5,5.6,23.3
							c-1.6,9.1-3,18.2-4.5,27.6c9.2-4.4,12.5-14.4,17.1-23.6c9.8,21.9,25,38.2,41.5,53c17,15.2,34.7,29.4,51.8,44.6
							c4.3,3.8,7.8,9.2,10.4,14.6c2.9,5.9,0.5,9.4-5.5,10.4c-3.5,0.6-8.6,0.4-10.2,2.8c-8.2,12-17.1,13.6-28.7,6.2
							c-4.2-2.7-7.1,1.4-5.7,7c2.3,9,9.5,12.8,18.4,9.7c9.4-3.3,11-2.1,12.5,8.6c0.8,5.9,2,11.7,3,17.6c4.2-8,6.6-15.9,9.9-23.3
							c4.9-10.9,10.4-21.4,15.7-32.1c0-4.6,0-9.1,0-13.7C640.5,279.9,636.1,272.5,630.7,266.2z"/>
						<polygon points="201.2,629 211.1,645.6 217,640.6 						"/>
						<path d="M359.3,720.4c0.5,0.3,1,0.5,1.5,0.8C360.3,720.9,359.8,720.6,359.3,720.4z"/>
						<path d="M346,713.1c1,0.6,2,1.2,3.1,1.8C348.1,714.3,347.1,713.7,346,713.1z"/>
						<path d="M356.8,758.8c0.4,2.2,3.6,2,3.6-0.2c0.3-8.9,0.9-21.8,1.9-36.6c-0.5-0.3-1-0.5-1.6-0.8c-0.5-0.3-1-0.5-1.5-0.8
							c-3.4-1.8-6.8-3.6-10.2-5.5c-1-0.6-2-1.2-3.1-1.8c-0.4-0.2-0.7-0.4-1.1-0.6C350.9,733.1,355.8,752.8,356.8,758.8z"/>
						<path d="M409.5,488.8c4.9,0,9.3-1.5,14-2.6c-1.6-16.5-4.2-30.5-4.4-47.7c-0.1-17.6,21.4-29.9,34.1-40.8
							c2.5-2.1,5.9-2.4,8.5-0.6c11.9,8,23.9,15.7,36.1,23.2c35.2,21.6,76.4,14.3,105.1-17c4-6.6,12.2-12.7,15.1-19.8
							c2.1-5.2-0.1-22.4,1.6-27.7c-7.1,7.2-11.9,25.8-19.2,32.8c-27.9,26.6-58.7,33.3-92.5,15c-12.5-6.7-24.4-14.7-36.6-22
							c-3.2-1.9-6.2-5.5-9.9-5.4l-89.6,16.5c-5.3,0.6-9.8,1.2-14.4,1.7c-10.1,1.1-20.2,2.3-30.3,3.2c-9.8,0.4-18.3-7.1-23.6-10.2
							c-6.4-3.7-13-7.2-20.5-11.4c0,0,0,0,0,0c1.2,3.3,1.9,5.4,2.7,7.4c11.6,29.6,31.8,51.3,53.7,71.5
							c17.2,15.8,34.7,31.3,51.3,47.8l16.1-13C407.8,489.1,408.6,488.8,409.5,488.8z"/>
						<path d="M294.4,699.5c0.2,0,0.4,0,0.6-0.1c-1,0.1-2,0.2-3,0.2c0.3,0,0.5,0,0.8-0.1C293.3,699.5,293.8,699.5,294.4,699.5z"/>
						<path d="M297.3,699.2c0.3,0,0.6-0.1,0.9-0.1c-1,0.1-2.1,0.2-3.1,0.3c0.2,0,0.4,0,0.6-0.1C296.3,699.3,296.8,699.2,297.3,699.2
							z"/>
						<path d="M300.3,698.8c0.4-0.1,0.8-0.1,1.2-0.2l0,0c-1,0.2-2.1,0.3-3.2,0.5c0.2,0,0.3,0,0.5-0.1
							C299.3,698.9,299.8,698.8,300.3,698.8z"/>
						<path d="M291.3,699.7c0.1,0,0.2,0,0.3,0c-1.1,0.1-2.2,0.1-3.3,0.2c0,0,0,0,0,0c0.5,0,1,0,1.4-0.1
							C290.2,699.7,290.8,699.7,291.3,699.7z"/>
						<path d="M301.4,728.3c-0.3-5.2-0.7-17,0-29.7c-0.4,0.1-0.8,0.1-1.2,0.2c-0.5,0.1-1,0.1-1.5,0.2c-0.2,0-0.3,0-0.5,0.1
							c0,0,0,0,0,0c-0.3,0-0.6,0.1-0.9,0.1c-0.5,0.1-1,0.1-1.5,0.2c-0.2,0-0.4,0-0.6,0.1c-0.1,0-0.1,0-0.2,0c-0.2,0-0.4,0-0.6,0.1
							c-0.5,0-1,0.1-1.6,0.1c-0.3,0-0.6,0-0.8,0.1c-0.1,0-0.2,0-0.4,0c-0.1,0-0.2,0-0.3,0c-0.5,0-1.1,0.1-1.6,0.1
							c-0.5,0-1,0-1.4,0.1c5.7,13.1,10.3,24,12.3,28.7C300.8,729,301.5,728.8,301.4,728.3z"/>
						<path d="M294.9,699.4c0.1,0,0.1,0,0.2,0c1-0.1,2.1-0.2,3.1-0.3c0,0,0,0,0,0c1.1-0.1,2.1-0.3,3.2-0.5
							c1.2-21.7,5.7-45.9,20.2-43.2c5.6,1.1,15.5,29.8,23.4,57c0.4,0.2,0.7,0.4,1.1,0.6c1,0.6,2,1.2,3.1,1.8c1.5,0.9,3,1.7,4.5,2.5
							c1.9,1,3.7,2,5.6,3c0.5,0.3,1,0.5,1.5,0.8c0.5,0.3,1.1,0.5,1.6,0.8c1.2-17.5,3.1-37.8,6-57.3c-2.9,43.1,69.1,69.6,69.1,69.6
							s-45.8-51.4-32.2-113.7c2.5-8,42.7,27.6,50.8,35c0.2,0.2,0.6-0.1,0.4-0.3c-5.4-8.9-30.2-53.6-27.3-126.6
							c0.6-15.1-4.9-32.2-5.3-37.2c-0.1-1.7-0.3-3.4-0.4-5.1c-4.7,1.2-9.1,2.6-14,2.6c-0.9,0-1.7,0.3-2.5,0.9l-16.1,13
							c0.8,0.8,1.7,1.6,2.5,2.5c12.1,12.3,19,25.2,18.3,43.7c-0.1,2.2-1.6,8.6-7.6,13.1c-0.2,0.2-0.5,0.2-0.8,0.1
							c-9-16.6-24.3-42.6-36.3-51.3L211.1,645.6l20.2,34c0-18.2-3.5-23.1,16.3-55.8c3.6-6,25.8,42.3,40.6,76c1.1,0,2.2-0.1,3.3-0.2
							c0.1,0,0.2,0,0.4,0C293,699.6,294,699.5,294.9,699.4z"/>
						<path d="M345,712.4c0.4,0.2,0.7,0.4,1.1,0.6C345.7,712.9,345.3,712.6,345,712.4C345,712.4,345,712.4,345,712.4z"/>
						<path d="M362.4,722C362.4,722,362.4,722,362.4,722c-0.5-0.3-1.1-0.5-1.6-0.8C361.3,721.4,361.8,721.7,362.4,722z"/>
						<path d="M295.2,699.4c-0.1,0-0.1,0-0.2,0C295,699.4,295.1,699.4,295.2,699.4z"/>
						<path d="M291.6,699.7c0.1,0,0.2,0,0.4,0C291.8,699.6,291.7,699.7,291.6,699.7z"/>
						<path d="M298.3,699C298.3,699,298.3,699,298.3,699C298.3,699,298.3,699,298.3,699z"/>
						<path d="M349.1,714.8c3.3,1.9,6.7,3.8,10.2,5.5c-1.9-1-3.8-2-5.6-3C352.1,716.5,350.6,715.7,349.1,714.8z"/>
						<path d="M602.9,403.3C603,403.2,603,403.2,602.9,403.3C603,403.2,603,403.2,602.9,403.3z"/>
						<path d="M602.9,403.3C602.9,403.3,602.9,403.3,602.9,403.3C602.9,403.3,602.9,403.3,602.9,403.3z"/>
						<path d="M603,403.2C603.1,403.1,603.1,403.1,603,403.2L603,403.2z"/>
					</g>
				</g>
			</g>
		</g>
	</g>
</g>
</svg>
